qens: Quantile Ensembles
…
We can now obtain predictions for the current time point:

ensemble_predictions <- predict(qens_fit, current_forecasts, sort = TRUE) %>%
    dplyr::mutate(model = "weighted mean ensemble")
ensemble_predictions
#> # A tibble: 4,968 × 6
#>    forecast_date target_end_date location quantile value model                 
#>    <date>        <date>          <chr>       <dbl> <dbl> <chr>                 
#>  1 2022-05-30    2022-06-04      01          0.01   9.18 weighted mean ensemble
#>  2 2022-05-30    2022-06-04      01          0.025  9.27 weighted mean ensemble
#>  3 2022-05-30    2022-06-04      01          0.05  10.1  weighted mean ensemble
#>  4 2022-05-30    2022-06-04      01          0.1   11.6  weighted mean ensemble
#>  5 2022-05-30    2022-06-04      01          0.15  13.6  weighted mean ensemble
#>  6 2022-05-30    2022-06-04      01          0.2   15.5  weighted mean ensemble
#>  7 2022-05-30    2022-06-04      01          0.25  17.5  weighted mean ensemble
#>  8 2022-05-30    2022-06-04      01          0.3   19.5  weighted mean ensemble
#>  9 2022-05-30    2022-06-04      01          0.35  21.7  weighted mean ensemble
#> 10 2022-05-30    2022-06-04      01          0.4   23.6  weighted mean ensemble
#> # … with 4,958 more rows

In this case, we could have obtained the same predictions directly as a weighted mean of the predictions:

direct_ensemble_predictions <- current_forecasts %>%
    dplyr::left_join(model_weights, by = "model") %>%
    dplyr::group_by(forecast_date, target_end_date, location, quantile) %>%
    dplyr::summarize(value = weighted.mean(value, w = weight),
                     .groups = "drop") %>%
    dplyr::mutate(model = "weighted mean ensemble")
direct_ensemble_predictions
#> # A tibble: 4,968 × 6
#>    forecast_date target_end_date location quantile value model                 
#>    <date>        <date>          <chr>       <dbl> <dbl> <chr>                 
#>  1 2022-05-30    2022-06-04      01          0.01   9.18 weighted mean ensemble
#>  2 2022-05-30    2022-06-04      01          0.025  9.27 weighted mean ensemble
#>  3 2022-05-30    2022-06-04      01          0.05  10.1  weighted mean ensemble
#>  4 2022-05-30    2022-06-04      01          0.1   11.6  weighted mean ensemble
#>  5 2022-05-30    2022-06-04      01          0.15  13.6  weighted mean ensemble
#>  6 2022-05-30    2022-06-04      01          0.2   15.5  weighted mean ensemble
#>  7 2022-05-30    2022-06-04      01          0.25  17.5  weighted mean ensemble
#>  8 2022-05-30    2022-06-04      01          0.3   19.5  weighted mean ensemble
#>  9 2022-05-30    2022-06-04      01          0.35  21.7  weighted mean ensemble
#> 10 2022-05-30    2022-06-04      01          0.4   23.6  weighted mean ensemble
#> # … with 4,958 more rows
…
